Library\Bee\artifacts\mvdfrm\UnityEditor.TestRunner.ref.dll_3CEDFFDC50464BDC.mvfrm
Library\Bee\artifacts\mvdfrm\UnityEngine.TestRunner.ref.dll_090C4A8A7C09A9C7.mvfrm
Library\Bee\artifacts\mvdfrm\UnityEngine.UI.ref.dll_1A140323D56DB509.mvfrm
Library\Bee\artifacts\mvdfrm\UnityEditor.Graphs.dll_214D8FC00E73C79B.mvfrm
Library\Bee\artifacts\mvdfrm\UnityEditor.CoreModule.dll_52572DDF7E4EE669.mvfrm
Library\Bee\artifacts\mvdfrm\UnityEditor.DeviceSimulatorModule.dll_48F052C79E1FB2A8.mvfrm
Library\Bee\artifacts\mvdfrm\UnityEditor.DiagnosticsModule.dll_AE40F8003A06FAF6.mvfrm
Library\Bee\artifacts\mvdfrm\UnityEditor.dll_F7B1C189155096DC.mvfrm
Library\Bee\artifacts\mvdfrm\UnityEditor.GraphViewModule.dll_8BB6050987C35C0D.mvfrm
Library\Bee\artifacts\mvdfrm\UnityEditor.PackageManagerUIModule.dll_A021DFE25EC73A85.mvfrm
Library\Bee\artifacts\mvdfrm\UnityEditor.QuickSearchModule.dll_3950790D92DDF74F.mvfrm
Library\Bee\artifacts\mvdfrm\UnityEditor.SceneTemplateModule.dll_A15BB6225680C5B0.mvfrm
Library\Bee\artifacts\mvdfrm\UnityEditor.TextCoreFontEngineModule.dll_8B3C4792BCDC8DC7.mvfrm
Library\Bee\artifacts\mvdfrm\UnityEditor.TextCoreTextEngineModule.dll_D3247E044C6046E5.mvfrm
Library\Bee\artifacts\mvdfrm\UnityEditor.UIBuilderModule.dll_E03EB225FA7BD541.mvfrm
Library\Bee\artifacts\mvdfrm\UnityEditor.UIElementsModule.dll_5AAF70E1D843A705.mvfrm
Library\Bee\artifacts\mvdfrm\UnityEditor.UIElementsSamplesModule.dll_A575B2ED64CE31B8.mvfrm
Library\Bee\artifacts\mvdfrm\UnityEditor.UIServiceModule.dll_1930C388E3B3255B.mvfrm
Library\Bee\artifacts\mvdfrm\UnityEditor.UnityConnectModule.dll_8C0042072BC5C99F.mvfrm
Library\Bee\artifacts\mvdfrm\UnityEngine.AccessibilityModule.dll_D40121B956F6ED4D.mvfrm
Library\Bee\artifacts\mvdfrm\UnityEngine.AIModule.dll_EECE33B2F798819D.mvfrm
Library\Bee\artifacts\mvdfrm\UnityEngine.AndroidJNIModule.dll_D8F859B5216315DB.mvfrm
Library\Bee\artifacts\mvdfrm\UnityEngine.AnimationModule.dll_5A3B8132622030B3.mvfrm
Library\Bee\artifacts\mvdfrm\UnityEngine.ARModule.dll_A840F8B654B5E066.mvfrm
Library\Bee\artifacts\mvdfrm\UnityEngine.AssetBundleModule.dll_7D39ABFEF544AC41.mvfrm
Library\Bee\artifacts\mvdfrm\UnityEngine.AudioModule.dll_0C965F55725DACE5.mvfrm
Library\Bee\artifacts\mvdfrm\UnityEngine.ClothModule.dll_737EBC504C7A8BC9.mvfrm
Library\Bee\artifacts\mvdfrm\UnityEngine.ClusterInputModule.dll_0B9CB71CDD4D9C65.mvfrm
Library\Bee\artifacts\mvdfrm\UnityEngine.ClusterRendererModule.dll_4E9D15390DDAC02C.mvfrm
Library\Bee\artifacts\mvdfrm\UnityEngine.CoreModule.dll_7578013226545194.mvfrm
Library\Bee\artifacts\mvdfrm\UnityEngine.CrashReportingModule.dll_4B543C990F3FA9AC.mvfrm
Library\Bee\artifacts\mvdfrm\UnityEngine.DirectorModule.dll_94A246A3E5BC64B1.mvfrm
Library\Bee\artifacts\mvdfrm\UnityEngine.dll_2A56086173C423C1.mvfrm
Library\Bee\artifacts\mvdfrm\UnityEngine.DSPGraphModule.dll_99F3A80D581D35D2.mvfrm
Library\Bee\artifacts\mvdfrm\UnityEngine.GameCenterModule.dll_0345A3CFE7A406CC.mvfrm
Library\Bee\artifacts\mvdfrm\UnityEngine.GIModule.dll_870A7CC0934769B7.mvfrm
Library\Bee\artifacts\mvdfrm\UnityEngine.GridModule.dll_52E91D203EA8E78B.mvfrm
Library\Bee\artifacts\mvdfrm\UnityEngine.HotReloadModule.dll_DB843F383D534C35.mvfrm
Library\Bee\artifacts\mvdfrm\UnityEngine.ImageConversionModule.dll_BA8F12E98FFF7820.mvfrm
Library\Bee\artifacts\mvdfrm\UnityEngine.IMGUIModule.dll_44F5FEBC388F40C6.mvfrm
Library\Bee\artifacts\mvdfrm\UnityEngine.InputLegacyModule.dll_0E7EC71D8D366232.mvfrm
Library\Bee\artifacts\mvdfrm\UnityEngine.InputModule.dll_730C2705E895D189.mvfrm
Library\Bee\artifacts\mvdfrm\UnityEngine.JSONSerializeModule.dll_3418AAF556324DD7.mvfrm
Library\Bee\artifacts\mvdfrm\UnityEngine.LocalizationModule.dll_49E9816F74C98F5E.mvfrm
Library\Bee\artifacts\mvdfrm\UnityEngine.NVIDIAModule.dll_4EFCF1C672C24080.mvfrm
Library\Bee\artifacts\mvdfrm\UnityEngine.ParticleSystemModule.dll_9E6685E57D51353A.mvfrm
Library\Bee\artifacts\mvdfrm\UnityEngine.PerformanceReportingModule.dll_0C319668FDFA7A53.mvfrm
Library\Bee\artifacts\mvdfrm\UnityEngine.Physics2DModule.dll_A6E17123031D2848.mvfrm
Library\Bee\artifacts\mvdfrm\UnityEngine.PhysicsModule.dll_B45634EBB2FD1656.mvfrm
Library\Bee\artifacts\mvdfrm\UnityEngine.ProfilerModule.dll_C6E87FDA7F15EBBE.mvfrm
Library\Bee\artifacts\mvdfrm\UnityEngine.RuntimeInitializeOnLoadManagerInitializerModule.dll_B835C75CA90F2911.mvfrm
Library\Bee\artifacts\mvdfrm\UnityEngine.ScreenCaptureModule.dll_4E00587A6A9E7A39.mvfrm
Library\Bee\artifacts\mvdfrm\UnityEngine.SharedInternalsModule.dll_3EA051BF072D7370.mvfrm
Library\Bee\artifacts\mvdfrm\UnityEngine.SpriteMaskModule.dll_EC72166009139C46.mvfrm
Library\Bee\artifacts\mvdfrm\UnityEngine.SpriteShapeModule.dll_969AD959AAE6E44B.mvfrm
Library\Bee\artifacts\mvdfrm\UnityEngine.StreamingModule.dll_0ED06E82B1A7E7F1.mvfrm
Library\Bee\artifacts\mvdfrm\UnityEngine.SubstanceModule.dll_EB7B82CBFCFAE5FF.mvfrm
Library\Bee\artifacts\mvdfrm\UnityEngine.SubsystemsModule.dll_571F7CC1D75B8459.mvfrm
Library\Bee\artifacts\mvdfrm\UnityEngine.TerrainModule.dll_CE9CB05A88BB5F44.mvfrm
Library\Bee\artifacts\mvdfrm\UnityEngine.TerrainPhysicsModule.dll_9EE12EB896942FC7.mvfrm
Library\Bee\artifacts\mvdfrm\UnityEngine.TextCoreFontEngineModule.dll_099BC2E5CFDA4C92.mvfrm
Library\Bee\artifacts\mvdfrm\UnityEngine.TextCoreTextEngineModule.dll_5183F9575F5E05B0.mvfrm
Library\Bee\artifacts\mvdfrm\UnityEngine.TextRenderingModule.dll_773FCA8521D5FA2E.mvfrm
Library\Bee\artifacts\mvdfrm\UnityEngine.TilemapModule.dll_6D9917DBA078404D.mvfrm
Library\Bee\artifacts\mvdfrm\UnityEngine.TLSModule.dll_5C84AEEA55A0E1AA.mvfrm
Library\Bee\artifacts\mvdfrm\UnityEngine.UIElementsModule.dll_5B5DDE29DA87C050.mvfrm
Library\Bee\artifacts\mvdfrm\UnityEngine.UIElementsNativeModule.dll_EA9B9477D03FAAA7.mvfrm
Library\Bee\artifacts\mvdfrm\UnityEngine.UIModule.dll_EA41D1E053DF8749.mvfrm
Library\Bee\artifacts\mvdfrm\UnityEngine.UmbraModule.dll_876B0B6DFF845858.mvfrm
Library\Bee\artifacts\mvdfrm\UnityEngine.UNETModule.dll_081E491B7363470D.mvfrm
Library\Bee\artifacts\mvdfrm\UnityEngine.UnityAnalyticsCommonModule.dll_A77053AD17E318B1.mvfrm
Library\Bee\artifacts\mvdfrm\UnityEngine.UnityAnalyticsModule.dll_BE05F6AF29788736.mvfrm
Library\Bee\artifacts\mvdfrm\UnityEngine.UnityConnectModule.dll_795FC616264DCA4A.mvfrm
Library\Bee\artifacts\mvdfrm\UnityEngine.UnityCurlModule.dll_8D582263D23422A0.mvfrm
Library\Bee\artifacts\mvdfrm\UnityEngine.UnityTestProtocolModule.dll_613868DFBEC9870E.mvfrm
Library\Bee\artifacts\mvdfrm\UnityEngine.UnityWebRequestAssetBundleModule.dll_1E5103AA75202287.mvfrm
Library\Bee\artifacts\mvdfrm\UnityEngine.UnityWebRequestAudioModule.dll_842DEA47846544EB.mvfrm
Library\Bee\artifacts\mvdfrm\UnityEngine.UnityWebRequestModule.dll_CC2E1A939AF4129F.mvfrm
Library\Bee\artifacts\mvdfrm\UnityEngine.UnityWebRequestTextureModule.dll_6F40D51E5FDB7620.mvfrm
Library\Bee\artifacts\mvdfrm\UnityEngine.UnityWebRequestWWWModule.dll_1C463EB34F1DC21C.mvfrm
Library\Bee\artifacts\mvdfrm\UnityEngine.VehiclesModule.dll_0C6540235FE6344C.mvfrm
Library\Bee\artifacts\mvdfrm\UnityEngine.VFXModule.dll_DD6347592C0E4B17.mvfrm
Library\Bee\artifacts\mvdfrm\UnityEngine.VideoModule.dll_319FE3C034EFC88A.mvfrm
Library\Bee\artifacts\mvdfrm\UnityEngine.VirtualTexturingModule.dll_0F2848E6A8EE2B32.mvfrm
Library\Bee\artifacts\mvdfrm\UnityEngine.VRModule.dll_3D13F865F59A0CC1.mvfrm
Library\Bee\artifacts\mvdfrm\UnityEngine.WindModule.dll_EBC6DC5AB78ACFFD.mvfrm
Library\Bee\artifacts\mvdfrm\UnityEngine.XRModule.dll_6FD2BB6A7ED45A1F.mvfrm
Library\Bee\artifacts\mvdfrm\Unity.Android.Gradle.dll_215D7FDF34B164D1.mvfrm
Library\Bee\artifacts\mvdfrm\Unity.Android.Types.dll_A7F4847AE51A0FFB.mvfrm
Library\Bee\artifacts\mvdfrm\UnityEditor.Android.Extensions.dll_99B4C7AE5B87BDB1.mvfrm
Library\Bee\artifacts\mvdfrm\UnityEditor.WindowsStandalone.Extensions.dll_49CE71ACCB5492C7.mvfrm
Library\Bee\artifacts\mvdfrm\Unity.Plastic.Antlr3.Runtime.dll_F1C6A40E1F1D7B8C.mvfrm
Library\Bee\artifacts\mvdfrm\Unity.Plastic.Newtonsoft.Json.dll_E5B85FE62377D2E9.mvfrm
Library\Bee\artifacts\mvdfrm\Unity.VisualScripting.IonicZip.dll_FA27A9567D852018.mvfrm
Library\Bee\artifacts\mvdfrm\Unity.VisualScripting.YamlDotNet.dll_D62662C11608BFE4.mvfrm
Library\Bee\artifacts\mvdfrm\Unity.VisualScripting.TextureAssets.dll_6D448C14D6D61DDC.mvfrm
Library\Bee\artifacts\mvdfrm\Unity.VisualScripting.Antlr3.Runtime.dll_879389A246D1D003.mvfrm