%YAML 1.1
%TAG !u! tag:unity3d.com,2011:
--- !u!78 &1
TagManager:
  serializedVersion: 2
  tags:
  - Footsteps/GRASS
  - Footsteps/GRAVEL
  - Footsteps/SAND
  - Footsteps/SNOW
  - Footsteps/CONCRETE
  - Footsteps/CARPET
  - Footsteps/DIRT
  - Footsteps/FLOOR
  - Footsteps/WOOD
  - Footsteps/WATER
  - Footsteps/TILES
  layers:
  - Default
  - TransparentFX
  - Ignore Raycast
  - Interactable
  - Water
  - UI
  - Player
  - Follower
  - 
  - 
  - 
  - 
  - 
  - 
  - 
  - 
  - 
  - 
  - 
  - 
  - 
  - 
  - 
  - 
  - 
  - 
  - 
  - 
  - 
  - 
  - 
  - 
  m_SortingLayers:
  - name: Default
    uniqueID: 0
    locked: 0
